…
The list of image files which make up the data cube is stored as a data frame in the column `file_info`. For each file, `sits` stores information about spectral band, reference date, size, spatial resolution, coordinate reference system, bounding box, path to file location and cloud cover information (when available). 


``` r
# Show information on the images files which are part of a data cube
sinop_cube$file_info[[1]]
```

```
#> # A tibble: 46 × 13
#>    fid   band  date       nrows ncols  xres  yres      xmin      ymin      xmax
#>    <chr> <chr> <date>     <dbl> <dbl> <dbl> <dbl>     <dbl>     <dbl>     <dbl>
#>  1 1     EVI   2013-09-14   551   944  232.  232. -6181982. -1353336. -5963298.
#>  2 1     NDVI  2013-09-14   551   944  232.  232. -6181982. -1353336. -5963298.
#>  3 2     EVI   2013-09-30   551   944  232.  232. -6181982. -1353336. -5963298.
#>  4 2     NDVI  2013-09-30   551   944  232.  232. -6181982. -1353336. -5963298.
#>  5 3     EVI   2013-10-16   551   944  232.  232. -6181982. -1353336. -5963298.
#>  6 3     NDVI  2013-10-16   551   944  232.  232. -6181982. -1353336. -5963298.
#>  7 4     EVI   2013-11-01   551   944  232.  232. -6181982. -1353336. -5963298.
#>  8 4     NDVI  2013-11-01   551   944  232.  232. -6181982. -1353336. -5963298.
#>  9 5     EVI   2013-11-17   551   944  232.  232. -6181982. -1353336. -5963298.
#> 10 5     NDVI  2013-11-17   551   944  232.  232. -6181982. -1353336. -5963298.
#> # ℹ 36 more rows
#> # ℹ 3 more variables: ymax <dbl>, crs <chr>, path <chr>
```
…
To handle time series information, `sits` uses a `tibble`. Tibbles are extensions of the `data.frame` tabular data structures provided by the `tidyverse` set of packages. The example below shows a tibble with 1,837 time series obtained from MODIS MOD13Q1 images. Each series has four attributes: two bands (NIR and MIR) and two indexes (NDVI and EVI). This dataset is available in package `sitsdata`.

The time series tibble contains data and metadata. The first six columns contain the metadata: spatial and temporal information, the label assigned to the sample, and the data cube from where the data has been extracted. The `time_series` column contains the time series data for each spatiotemporal location. This data is also organized as a tibble, with a column with the dates and the other columns with the values for each spectral band. 


``` r
# Load the MODIS samples for Mato Grosso from the "sitsdata" package
library(tibble)
library(sitsdata)
data("samples_matogrosso_mod13q1", package = "sitsdata")
samples_matogrosso_mod13q1
```

```
#> # A tibble: 1,837 × 7
#>    longitude latitude start_date end_date   label   cube     time_series      
#>        <dbl>    <dbl> <date>     <date>     <chr>   <chr>    <list>           
#>  1     -57.8    -9.76 2006-09-14 2007-08-29 Pasture bdc_cube <tibble [23 × 5]>
#>  2     -59.4    -9.31 2014-09-14 2015-08-29 Pasture bdc_cube <tibble [23 × 5]>
#>  3     -59.4    -9.31 2013-09-14 2014-08-29 Pasture bdc_cube <tibble [23 × 5]>
#>  4     -57.8    -9.76 2006-09-14 2007-08-29 Pasture bdc_cube <tibble [23 × 5]>
#>  5     -55.2   -10.8  2013-09-14 2014-08-29 Pasture bdc_cube <tibble [23 × 5]>
#>  6     -51.9   -13.4  2014-09-14 2015-08-29 Pasture bdc_cube <tibble [23 × 5]>
#>  7     -56.0   -10.1  2005-09-14 2006-08-29 Pasture bdc_cube <tibble [23 × 5]>
#>  8     -54.6   -10.4  2013-09-14 2014-08-29 Pasture bdc_cube <tibble [23 × 5]>
#>  9     -52.5   -11.0  2013-09-14 2014-08-29 Pasture bdc_cube <tibble [23 × 5]>
#> 10     -52.1   -14.0  2013-09-14 2014-08-29 Pasture bdc_cube <tibble [23 × 5]>
#> # ℹ 1,827 more rows
```

The timeline for all time series associated with the samples follows the same agricultural calendar, starting in September 14th and ending in August 28th. All samples contain 23 values, corresponding to the same temporal interval as those of the `sinop` data cube. Notice that that although the years for the samples are different, the samples for a given year follow the same agricultural calendar. 

The time series can be displayed by showing the `time_series` column.


``` r
# Load the time series for MODIS samples for Mato Grosso
samples_matogrosso_mod13q1[1, ]$time_series[[1]]
```

```
#> # A tibble: 23 × 5
#>    Index       NDVI   EVI   NIR    MIR
#>    <date>     <dbl> <dbl> <dbl>  <dbl>
#>  1 2006-09-14 0.500 0.263 0.230 0.139 
#>  2 2006-09-30 0.485 0.330 0.359 0.161 
#>  3 2006-10-16 0.716 0.397 0.264 0.0757
#>  4 2006-11-01 0.654 0.415 0.332 0.124 
#>  5 2006-11-17 0.591 0.433 0.400 0.172 
#>  6 2006-12-03 0.662 0.439 0.348 0.125 
#>  7 2006-12-19 0.734 0.444 0.295 0.0784
#>  8 2007-01-01 0.739 0.502 0.348 0.0887
#>  9 2007-01-17 0.768 0.526 0.351 0.0761
#> 10 2007-02-02 0.797 0.550 0.355 0.0634
#> # ℹ 13 more rows
```
…
Although this combination is conceptually simple, it has drawbacks. Since the attribute space now mixes times series with fixed-time information, the only applicable classification method is random forests. Because of the way random forest works, not all attributes are used by every decision tree. During the training of each tree, at each node, a random subset of features is selected, and the best split is chosen based on this subset rather than all features. Thus, there may be a significant number of decision trees that do use the DEM attribute. As a result, the effect of the DEM information may be underestimated. 

The alternative is to combine the image data cube and the DEM using `sits_merge`. In this case, the DEM becomes another band. Although it may look peculiar to replicate the DEM many time to build an artificial time series, there are many advantages in doing so. All classification algorithms available in `sits` (including the deep learning ones) can be used to classify the resulting cube. For cases where the DEM information is particularly important, such organisation places DEM data at a par with other spectral bands. Users are encouraged to compare the results obtained by direct merging of DEM with spectral bands with the method where DEM is taken as a base cube. 


``` r
merged_cube <- sits_merge(s2_cube_19HBA_reg, dem_cube_19HBA_reg)
merged_cube$file_info[[1]]
```

```
#> # A tibble: 24 × 13
#>    fid   band      date       nrows ncols  xres  yres   xmin   ymin   xmax  ymax
#>    <chr> <chr>     <date>     <dbl> <dbl> <dbl> <dbl>  <dbl>  <dbl>  <dbl> <dbl>
#>  1 1     B04       2021-01-03  3660  3660    30    30 199980 5.99e6 309780 6.1e6
#>  2 1     B12       2021-01-03  3660  3660    30    30 199980 5.99e6 309780 6.1e6
#>  3 1     B8A       2021-01-03  3660  3660    30    30 199980 5.99e6 309780 6.1e6
#>  4 1     ELEVATION 2021-01-03  3660  3660    30    30 199980 5.99e6 309780 6.1e6
#>  5 2     B04       2021-01-19  3660  3660    30    30 199980 5.99e6 309780 6.1e6
#>  6 2     B12       2021-01-19  3660  3660    30    30 199980 5.99e6 309780 6.1e6
#>  7 2     B8A       2021-01-19  3660  3660    30    30 199980 5.99e6 309780 6.1e6
#>  8 1     ELEVATION 2021-01-19  3660  3660    30    30 199980 5.99e6 309780 6.1e6
#>  9 3     B04       2021-02-04  3660  3660    30    30 199980 5.99e6 309780 6.1e6
#> 10 3     B12       2021-02-04  3660  3660    30    30 199980 5.99e6 309780 6.1e6
#> # ℹ 14 more rows
#> # ℹ 2 more variables: crs <chr>, path <chr>
```
…
## Measuring confusion between labels using SOM{-}

The second step in SOM-based quality assessment is understanding the confusion between labels. The function `sits_som_evaluate_cluster()` groups neurons by their majority label and produces a tibble. Neurons are grouped into clusters, and there will be as many clusters as there are labels. The results shows the percentage of samples of each label in each cluster. Ideally, all samples of each cluster would have the same label. In practice, cluster contain samples with different label. This information helps on measuring the confusion between samples. 


``` r
# Produce a tibble with a summary of the mixed labels
som_eval <- sits_som_evaluate_cluster(som_cluster)
# Show the result
som_eval
```

```
#> # A tibble: 66 × 4
#>    id_cluster cluster        class          mixture_percentage
#>         <int> <chr>          <chr>                       <dbl>
#>  1          1 Dense_Woodland Dense_Woodland            78.1   
#>  2          1 Dense_Woodland Pasture                    5.56  
#>  3          1 Dense_Woodland Rocky_Savanna              8.95  
#>  4          1 Dense_Woodland Savanna                    3.88  
#>  5          1 Dense_Woodland Silviculture               3.48  
#>  6          1 Dense_Woodland Soy_Corn                   0.0249
#>  7          2 Dunes          Dunes                    100     
#>  8          3 Fallow_Cotton  Dense_Woodland             0.169 
#>  9          3 Fallow_Cotton  Fallow_Cotton             49.5   
#> 10          3 Fallow_Cotton  Millet_Cotton             13.9   
#> # ℹ 56 more rows
```
…
<img src="./images/view_rondonia_class_cube.png" width="100%" style="display: block; margin: auto;" />

## How colors work in sits{-}

In examples provided in the book, the color legend is taken from a predefined color pallete provided by `sits`. The default color definition file used by `sits` has 220 class names, which can be shown using `sits_colors()`


```
#> [1] "Returning all available colors"
```

```
#> # A tibble: 236 × 2
#>    name                             color  
#>    <chr>                            <chr>  
#>  1 Evergreen_Broadleaf_Forest       #1E8449
#>  2 Evergreen_Broadleaf_Forests      #1E8449
#>  3 Tree_Cover_Broadleaved_Evergreen #1E8449
#>  4 Forest                           #1E8449
#>  5 Forests                          #1E8449
#>  6 Closed_Forest                    #1E8449
#>  7 Closed_Forests                   #1E8449
#>  8 Mountainside_Forest              #229C59
#>  9 Mountainside_Forests             #229C59
#> 10 Open_Forest                      #53A145
#> # ℹ 226 more rows
```
…
The following definition from Wikipedia captures the purpose of clousures: *"Operationally, a closure is a record storing a function together with an environment. The environment is a mapping associating each free variable of the function with the value or reference to which the name was bound when the closure was created. A closure allows the function to access those captured variables through the closure's copies of their values or references, even when the function is invoked outside their scope."*

In `sits`, the properties of closures are used as a basis for making training and classification independent. The return of `sits_train()` is a model that contains information on how to classify input values, as well as information on the samples used to train the model. 

To ensure all models work in the same fashion, machine learning functions in `sits` also share the same data structure for prediction. This data structure is created by `sits_predictors()`, which transforms the time series tibble into a set of values suitable for using as training data, as shown in the following example.


``` r
data("samples_matogrosso_mod13q1", package = "sitsdata")
pred <- sits_predictors(samples_matogrosso_mod13q1)
pred
```

```
#> # A tibble: 1,837 × 94
#>    sample_id label  NDVI1 NDVI2 NDVI3 NDVI4 NDVI5 NDVI6 NDVI7 NDVI8 NDVI9 NDVI10
#>        <int> <chr>  <dbl> <dbl> <dbl> <dbl> <dbl> <dbl> <dbl> <dbl> <dbl>  <dbl>
#>  1         1 Pastu… 0.500 0.485 0.716 0.654 0.591 0.662 0.734 0.739 0.768  0.797
#>  2         2 Pastu… 0.364 0.484 0.605 0.726 0.778 0.829 0.762 0.762 0.643  0.610
#>  3         3 Pastu… 0.577 0.674 0.639 0.569 0.596 0.623 0.650 0.650 0.637  0.646
#>  4         4 Pastu… 0.597 0.699 0.789 0.792 0.794 0.72  0.646 0.705 0.757  0.810
#>  5         5 Pastu… 0.388 0.491 0.527 0.660 0.677 0.746 0.816 0.816 0.825  0.835
#>  6         6 Pastu… 0.350 0.345 0.364 0.429 0.506 0.583 0.660 0.616 0.580  0.651
#>  7         7 Pastu… 0.490 0.527 0.543 0.583 0.594 0.605 0.616 0.627 0.622  0.644
#>  8         8 Pastu… 0.435 0.574 0.395 0.392 0.518 0.597 0.648 0.774 0.786  0.798
#>  9         9 Pastu… 0.396 0.473 0.542 0.587 0.649 0.697 0.696 0.695 0.699  0.703
#> 10        10 Pastu… 0.354 0.387 0.527 0.577 0.626 0.723 0.655 0.655 0.646  0.536
#> # ℹ 1,827 more rows
#> # ℹ 82 more variables: NDVI11 <dbl>, NDVI12 <dbl>, NDVI13 <dbl>, NDVI14 <dbl>,
#> #   NDVI15 <dbl>, NDVI16 <dbl>, NDVI17 <dbl>, NDVI18 <dbl>, NDVI19 <dbl>,
#> #   NDVI20 <dbl>, NDVI21 <dbl>, NDVI22 <dbl>, NDVI23 <dbl>, EVI1 <dbl>,
#> #   EVI2 <dbl>, EVI3 <dbl>, EVI4 <dbl>, EVI5 <dbl>, EVI6 <dbl>, EVI7 <dbl>,
#> #   EVI8 <dbl>, EVI9 <dbl>, EVI10 <dbl>, EVI11 <dbl>, EVI12 <dbl>, EVI13 <dbl>,
#> #   EVI14 <dbl>, EVI15 <dbl>, EVI16 <dbl>, EVI17 <dbl>, EVI18 <dbl>, …
```
…
