…
## Measuring confusion between labels using SOM{-}

The second step in SOM-based quality assessment is understanding the confusion between labels. The function `sits_som_evaluate_cluster()` groups neurons by their majority label and produces a tibble. Neurons are grouped into clusters, and there will be as many clusters as there are labels. The results shows the percentage of samples of each label in each cluster. Ideally, all samples of each cluster would have the same label. In practice, cluster contain samples with different label. This information helps on measuring the confusion between samples. 


``` r
# Produce a tibble with a summary of the mixed labels
som_eval <- sits_som_evaluate_cluster(som_cluster)
# Show the result
som_eval
```

```
#> # A tibble: 66 × 4
#>    id_cluster cluster        class          mixture_percentage
#>         <int> <chr>          <chr>                       <dbl>
#>  1          1 Dense_Woodland Dense_Woodland            78.1   
#>  2          1 Dense_Woodland Pasture                    5.56  
#>  3          1 Dense_Woodland Rocky_Savanna              8.95  
#>  4          1 Dense_Woodland Savanna                    3.88  
#>  5          1 Dense_Woodland Silviculture               3.48  
#>  6          1 Dense_Woodland Soy_Corn                   0.0249
#>  7          2 Dunes          Dunes                    100     
#>  8          3 Fallow_Cotton  Dense_Woodland             0.169 
#>  9          3 Fallow_Cotton  Fallow_Cotton             49.5   
#> 10          3 Fallow_Cotton  Millet_Cotton             13.9   
#> # ℹ 56 more rows
```
…
