Earth observation data cubes | sits: Satellite Image Time Series Analysis on Earth Observation Data Cubes
…
#> # A tibble: 1 × 11
#>   source collection     satellite sensor  tile    xmin   xmax   ymin  ymax crs  
#>   <chr>  <chr>          <chr>     <chr>   <chr>  <dbl>  <dbl>  <dbl> <dbl> <chr>
#> 1 MPC    COP-DEM-GLO-30 TANDEM-X  X-band… 19HBA 199980 309780 5.99e6 6.1e6 EPSG…
#> # ℹ 1 more variable: file_info <list>

Although this combination is conceptually simple, it has drawbacks. Since the attribute space now mixes times series with fixed-time information, the only applicable classification method is random forests. Because of the way random forest works, not all attributes are used by every decision tree. During the training of each tree, at each node, a random subset of features is selected, and the best split is chosen based on this subset rather than all features. Thus, there may be a significant number of decision trees that do use the DEM attribute. As a result, the effect of the DEM information may be underestimated.

The alternative is to combine the image data cube and the DEM using sits_merge. In this case, the DEM becomes another band. Although it may look peculiar to replicate the DEM many time to build an artificial time series, there are many advantages in doing so. All classification algorithms available in sits (including the deep learning ones) can be used to classify the resulting cube. For cases where the DEM information is particularly important, such organisation places DEM data at a par with other spectral bands. Users are encouraged to compare the results obtained by direct merging of DEM with spectral bands with the method where DEM is taken as a base cube.

merged_cube <- sits_merge(s2_cube_19HBA_reg, dem_cube_19HBA_reg)
merged_cube$file_info[[1]]

#> # A tibble: 24 × 13
#>    fid   band      date       nrows ncols  xres  yres   xmin   ymin   xmax  ymax
#>    <chr> <chr>     <date>     <dbl> <dbl> <dbl> <dbl>  <dbl>  <dbl>  <dbl> <dbl>
#>  1 1     B04       2021-01-03  3660  3660    30    30 199980 5.99e6 309780 6.1e6
#>  2 1     B12       2021-01-03  3660  3660    30    30 199980 5.99e6 309780 6.1e6
#>  3 1     B8A       2021-01-03  3660  3660    30    30 199980 5.99e6 309780 6.1e6
#>  4 1     ELEVATION 2021-01-03  3660  3660    30    30 199980 5.99e6 309780 6.1e6
#>  5 2     B04       2021-01-19  3660  3660    30    30 199980 5.99e6 309780 6.1e6
#>  6 2     B12       2021-01-19  3660  3660    30    30 199980 5.99e6 309780 6.1e6
#>  7 2     B8A       2021-01-19  3660  3660    30    30 199980 5.99e6 309780 6.1e6
#>  8 1     ELEVATION 2021-01-19  3660  3660    30    30 199980 5.99e6 309780 6.1e6
#>  9 3     B04       2021-02-04  3660  3660    30    30 199980 5.99e6 309780 6.1e6
#> 10 3     B12       2021-02-04  3660  3660    30    30 199980 5.99e6 309780 6.1e6
#> # ℹ 14 more rows
#> # ℹ 2 more variables: crs <chr>, path <chr>
…
