Improving the quality of training samples | sits: Satellite Image Time Series Analysis on Earth Observation Data Cubes
…
The output of the sits_som_map() is a list with three elements: (a) data, the original set of time series with two additional columns for each time series: id_sample (the original id of each sample) and id_neuron (the id of the neuron to which it belongs); (b) labelled_neurons, a tibble with information on the neurons. For each neuron, it gives the prior and posterior probabilities of all labels which occur in the samples assigned to it; and (c) the SOM grid. To plot the SOM grid, use plot(). The neurons are labelled using majority voting.

The SOM grid shows that most classes are associated with neurons close to each other, although there are exceptions. Some Pasture neurons are far from the main cluster because the transition between open savanna and pasture areas is not always well defined and depends on climate and latitude. Also, the neurons associated with Soy_Fallow are dispersed in the map, indicating possible problems in distinguishing this class from the other agricultural classes. The SOM map can be used to remove outliers, as shown below.

Measuring confusion between labels using SOM

The second step in SOM-based quality assessment is understanding the confusion between labels. The function sits_som_evaluate_cluster() groups neurons by their majority label and produces a tibble. Neurons are grouped into clusters, and there will be as many clusters as there are labels. The results shows the percentage of samples of each label in each cluster. Ideally, all samples of each cluster would have the same label. In practice, cluster contain samples with different label. This information helps on measuring the confusion between samples.

# Produce a tibble with a summary of the mixed labels
som_eval <- sits_som_evaluate_cluster(som_cluster)
# Show the result
som_eval

#> # A tibble: 79 × 4
#>    id_cluster cluster        class          mixture_percentage
#>         <int> <chr>          <chr>                       <dbl>
#>  1          1 Dense_Woodland Dense_Woodland           81.0    
#>  2          1 Dense_Woodland Millet_Cotton             0.00871
#>  3          1 Dense_Woodland Pasture                   6.14   
#>  4          1 Dense_Woodland Rocky_Savanna             7.16   
#>  5          1 Dense_Woodland Savanna                   4.03   
#>  6          1 Dense_Woodland Silviculture              1.63   
#>  7          1 Dense_Woodland Soy_Corn                  0.0261 
#>  8          1 Dense_Woodland Soy_Cotton                0.0261 
#>  9          1 Dense_Woodland Soy_Fallow                0.00871
#> 10          2 Dunes          Dunes                   100      
#> # ℹ 69 more rows
…
