Satellite Image Time Series Analysis on Earth Observation Data Cubes - 1 A quick tour of SITS
…
                    file_info  
1  NestedDataFrame(size = 69)  

The list of image files which make up the data cube is stored as a data frame in the column file_info. For each file, sits stores information about spectral band, reference date, size, spatial resolution, coordinate reference system, bounding box, path to file location and cloud cover information (when available).

R

Python

# Show information on the images files which are part of a data cube
sinop_cube$file_info[[1]]

# A tibble: 69 × 13
   fid   band  date       nrows ncols  xres  yres      xmin      ymin      xmax
   <chr> <chr> <date>     <dbl> <dbl> <dbl> <dbl>     <dbl>     <dbl>     <dbl>
 1 1     CLOUD 2013-09-14   551   944  232.  232. -6181982. -1353336. -5963298.
 2 1     EVI   2013-09-14   551   944  232.  232. -6181982. -1353336. -5963298.
 3 1     NDVI  2013-09-14   551   944  232.  232. -6181982. -1353336. -5963298.
 4 2     CLOUD 2013-09-30   551   944  232.  232. -6181982. -1353336. -5963298.
 5 2     EVI   2013-09-30   551   944  232.  232. -6181982. -1353336. -5963298.
 6 2     NDVI  2013-09-30   551   944  232.  232. -6181982. -1353336. -5963298.
 7 3     CLOUD 2013-10-16   551   944  232.  232. -6181982. -1353336. -5963298.
 8 3     EVI   2013-10-16   551   944  232.  232. -6181982. -1353336. -5963298.
 9 3     NDVI  2013-10-16   551   944  232.  232. -6181982. -1353336. -5963298.
10 4     CLOUD 2013-11-01   551   944  232.  232. -6181982. -1353336. -5963298.
# ℹ 59 more rows
# ℹ 3 more variables: ymax <dbl>, crs <chr>, path <chr>
…
The time series tibble contains data and metadata. The first six columns contain the metadata: spatial and temporal information, the label assigned to the sample, and the data cube from where the data has been extracted. The time_series column contains the time series data for each spatiotemporal location. This data is also organized as a tibble, with a column with the dates and the other columns with the values for each spectral band.

R

Python

# Load the MODIS samples for Mato Grosso from the "sitsdata" package
library(tibble)
library(sitsdata)
samples_dir <- system.file("data", package = "sitsdata")
samples_matogrosso_modis <- readRDS(file.path(samples_dir, "samples_matogrosso_modis.rds"))
samples_matogrosso_modis

# A tibble: 1,837 × 7
   longitude latitude start_date end_date   label   cube     time_series      
       <dbl>    <dbl> <date>     <date>     <chr>   <chr>    <list>           
 1     -57.8    -9.76 2006-09-14 2007-08-29 Pasture bdc_cube <tibble [23 × 3]>
 2     -59.4    -9.31 2014-09-14 2015-08-29 Pasture bdc_cube <tibble [23 × 3]>
 3     -59.4    -9.31 2013-09-14 2014-08-29 Pasture bdc_cube <tibble [23 × 3]>
 4     -57.8    -9.76 2006-09-14 2007-08-29 Pasture bdc_cube <tibble [23 × 3]>
 5     -55.2   -10.8  2013-09-14 2014-08-29 Pasture bdc_cube <tibble [23 × 3]>
 6     -51.9   -13.4  2014-09-14 2015-08-29 Pasture bdc_cube <tibble [23 × 3]>
 7     -56.0   -10.1  2005-09-14 2006-08-29 Pasture bdc_cube <tibble [23 × 3]>
 8     -54.6   -10.4  2013-09-14 2014-08-29 Pasture bdc_cube <tibble [23 × 3]>
 9     -52.5   -11.0  2013-09-14 2014-08-29 Pasture bdc_cube <tibble [23 × 3]>
10     -52.1   -14.0  2013-09-14 2014-08-29 Pasture bdc_cube <tibble [23 × 3]>
# ℹ 1,827 more rows
…
[1837 rows x 7 columns]

The timeline for all time series associated with the samples follows the same agricultural calendar, starting in September 14th and ending in August 28th. All samples contain 23 values, corresponding to the same temporal interval as those of the sinop data cube. Notice that that although the years for the samples are different, the samples for a given year follow the same agricultural calendar.

The time series can be displayed by showing the time_series nested column.

R

Python

# Load the time series for the first MODIS sample for Mato Grosso
samples_matogrosso_modis[1,]$time_series[[1]]

# A tibble: 23 × 3
   Index       NDVI   EVI
   <date>     <dbl> <dbl>
 1 2006-09-14 0.500 0.263
 2 2006-09-30 0.485 0.330
 3 2006-10-16 0.716 0.397
 4 2006-11-01 0.654 0.415
 5 2006-11-17 0.591 0.433
 6 2006-12-03 0.662 0.439
 7 2006-12-19 0.734 0.444
 8 2007-01-01 0.739 0.502
 9 2007-01-17 0.768 0.526
10 2007-02-02 0.797 0.550
# ℹ 13 more rows
…
