Satellite Image Time Series Analysis on Earth Observation Data Cubes - 3 Data visualisation in SITS
…
Figure 3.4: Leaflet visualization of classification of an area in Rondonia, Brasil

3.3 How colors work in sits

In the examples provided in the book, the color legend is taken from a predefined color palette provided by sits. The default color definition file used by sits includes 220 class names, which can be shown using sits_colors().

# Point default `sits` colors
sits_colors()

# A tibble: 239 × 2
   name                             color  
   <chr>                            <chr>  
 1 Evergreen_Broadleaf_Forest       #1E8449
 2 Evergreen_Broadleaf_Forests      #1E8449
 3 Tree_Cover_Broadleaved_Evergreen #1E8449
 4 Forest                           #1E8449
 5 Forests                          #1E8449
 6 Closed_Forest                    #1E8449
 7 Closed_Forests                   #1E8449
 8 Mountainside_Forest              #229C59
 9 Mountainside_Forests             #229C59
10 Open_Forest                      #53A145
# ℹ 229 more rows
…
