Satellite Image Time Series Analysis on Earth Observation Data Cubes - 12 Basic operations on image time series
…
# Read the points from the cube and produce a tibble with time series
samples_cerrado_forested <- sits_get_data(
    cube         = modis_cube, 
    samples      = shp_file, 
    start_date   = "2020-06-01",
    end_date     = "2021-08-29", 
    label        = "Woody Savanna",
    multicores   = 4)
# Display the time series for the locations of Woody Savanna
samples_cerrado_forested

# A tibble: 40 × 7
   longitude latitude start_date end_date   label         cube       time_series
       <dbl>    <dbl> <date>     <date>     <chr>         <chr>      <list>     
 1     -51.9    -13.6 2020-06-09 2021-08-29 Woody Savanna MOD13Q1-6… <tibble>   
 2     -51.5    -13.6 2020-06-09 2021-08-29 Woody Savanna MOD13Q1-6… <tibble>   
 3     -51.4    -12.6 2020-06-09 2021-08-29 Woody Savanna MOD13Q1-6… <tibble>   
 4     -51.3    -13.3 2020-06-09 2021-08-29 Woody Savanna MOD13Q1-6… <tibble>   
 5     -51.2    -13.8 2020-06-09 2021-08-29 Woody Savanna MOD13Q1-6… <tibble>   
 6     -51.1    -13.0 2020-06-09 2021-08-29 Woody Savanna MOD13Q1-6… <tibble>   
 7     -50.7    -13.1 2020-06-09 2021-08-29 Woody Savanna MOD13Q1-6… <tibble>   
 8     -50.2    -14.3 2020-06-09 2021-08-29 Woody Savanna MOD13Q1-6… <tibble>   
 9     -50.1    -14.2 2020-06-09 2021-08-29 Woody Savanna MOD13Q1-6… <tibble>   
10     -47.3    -11.3 2020-06-09 2021-08-29 Woody Savanna MOD13Q1-6… <tibble>   
# ℹ 30 more rows
…
