27 Exporting data to other packages – Satellite Image Time Series Analysis on Earth Observation Data Cubes
…
27.1.1 Exporting time series data to sf

The sf package is the backbone of geospatial vector processing in R [1]. To export time series tibbles from sits to sf, the function sits_as_sf() creates an sf POINT object with the locations of each sample and includes the time_series column as a list. Each row in the sf object contains the time series associated to the sample.

# Export a sits tibble to sf
sf_obj <- sits_as_sf(samples_modis_ndvi)
# Display the sf object
sf_obj

Simple feature collection with 1218 features and 8 fields
Geometry type: POINT
Dimension:     XY
Bounding box:  xmin: -60.4875 ymin: -17.4373 xmax: -51.565 ymax: -9.3126
Geodetic CRS:  WGS 84
# A tibble: 1,218 × 9
   crs                  geometry longitude latitude start_date end_date  
 * <chr>             <POINT [°]>     <dbl>    <dbl> <date>     <date>    
 1 EPSG:4326 (-55.1852 -10.8378)     -55.2   -10.8  2013-09-14 2014-08-29
 2 EPSG:4326   (-57.794 -9.7573)     -57.8    -9.76 2006-09-14 2007-08-29
 3 EPSG:4326 (-51.9412 -13.4198)     -51.9   -13.4  2014-09-14 2015-08-29
 4 EPSG:4326 (-55.9643 -10.0621)     -56.0   -10.1  2005-09-14 2006-08-29
 5 EPSG:4326  (-54.554 -10.3749)     -54.6   -10.4  2013-09-14 2014-08-29
 6 EPSG:4326 (-52.4572 -10.9512)     -52.5   -11.0  2013-09-14 2014-08-29
 7 EPSG:4326 (-52.1443 -13.9981)     -52.1   -14.0  2013-09-14 2014-08-29
 8 EPSG:4326 (-57.6907 -13.3382)     -57.7   -13.3  2015-09-14 2016-08-28
 9 EPSG:4326 (-54.7034 -16.4265)     -54.7   -16.4  2015-09-14 2016-08-28
10 EPSG:4326 (-56.7898 -11.4209)     -56.8   -11.4  2011-09-14 2012-08-28
# ℹ 1,208 more rows
# ℹ 3 more variables: label <chr>, cube <chr>, time_series <list>
…
