Data visualisation in sits | sits: Satellite Image Time Series Analysis on Earth Observation Data Cubes
…
How colors work in sits

In examples provided in the book, the color legend is taken from a predefined color pallete provided by sits. The default color definition file used by sits has 220 class names, which can be shown using sits_colors()

#> [1] "Returning all available colors"

#> # A tibble: 241 × 2
#>    name                             color  
#>    <chr>                            <chr>  
#>  1 Evergreen_Broadleaf_Forest       #1E8449
#>  2 Evergreen_Broadleaf_Forests      #1E8449
#>  3 Tree_Cover_Broadleaved_Evergreen #1E8449
#>  4 Forest                           #1E8449
#>  5 Forests                          #1E8449
#>  6 Closed_Forest                    #1E8449
#>  7 Closed_Forests                   #1E8449
#>  8 Mountainside_Forest              #229C59
#>  9 Mountainside_Forests             #229C59
#> 10 Open_Forest                      #53A145
#> # ℹ 231 more rows
…
