Design and extensibility considerations | sits: Satellite Image Time Series Analysis on Earth Observation Data Cubes
…
Figure 91: Default colors used in the sits package

The color table can be extended or adjusted by accessing and modifying the default color table, using the commands sits_colors() to retrieve the table and sits_colors_set() to update the table according to user choices, as shown in the example below.

# retrieve the color table
color_tb <- sits_colors()
# show the color table
color_tb

#> # A tibble: 99 × 3
#>    name                       color   group          
#>    <chr>                      <chr>   <chr>          
#>  1 Evergreen_Broadleaf_Forest #1E8449 Tropical_Forest
#>  2 Forest                     #1E8449 Tropical_Forest
#>  3 Closed_Forest              #1E8449 Tropical_Forest
#>  4 Woodland                   #27AE60 Tropical_Forest
#>  5 Dense_Woodland             #27AE60 Tropical_Forest
#>  6 Woody_Savanna              #27AE60 Tropical_Forest
#>  7 Open_Forest                #27AE60 Tropical_Forest
#>  8 Cerradao                   #27AE60 Tropical_Forest
#>  9 Mixed_Forest               #27AE60 Tropical_Forest
#> 10 Sparse_Forest              #27AE60 Tropical_Forest
#> # … with 89 more rows
…
