Chapter 4 Improving the Quality of Training Samples | sits: Data Analysis and Machine Learning on Earth Observation Data Cubes with Satellite Image Time Series
…
Figure 4.4: SOM map for the Cerrado samples

The SOM grid shows that most classes are associated to neurons close to each other. The are exceptions. Some “Pasture” neurons are far from the main cluster, because the transition between areas of open savanna and pasture is not always well defined and depends on climate and latitude. Also, the neurons associated to “Soy_Fallow” are dispersed in the map; this indicates possible problems in distinguising this class from the other agricultural classes. Thus, the SOM grid provides a measures of sample quality.

SOM-based quality assessment part 2: assessing confusion between labels

The second step in SOM-based quality assessment is understanding the confusion between labels. The function sits_som_evaluate_cluster() groups neurons by their majority label and produces a tibble. For each label, the tibble show the percentage of samples with a different label that have been mapped to a neuron whose majority is that label.

# produce a tibble with a summary of the mixed labels
som_eval <- sits_som_evaluate_cluster(som_cluster)
# show the result
som_eval

#> # A tibble: 79 × 4
#>    id_cluster cluster        class          mixture_percentage
#>         <int> <chr>          <chr>                       <dbl>
#>  1          1 Dense_Woodland Dense_Woodland           84.6    
#>  2          1 Dense_Woodland Pasture                   4.80   
#>  3          1 Dense_Woodland Rocky_Savanna             4.93   
#>  4          1 Dense_Woodland Savanna                   3.27   
#>  5          1 Dense_Woodland Silviculture              2.28   
#>  6          1 Dense_Woodland Soy_Corn                  0.0387 
#>  7          1 Dense_Woodland Soy_Cotton                0.0387 
#>  8          1 Dense_Woodland Soy_Fallow                0.00968
#>  9          2 Dunes          Dunes                   100      
#> 10          3 Fallow_Cotton  Dense_Woodland            0.329  
#> # … with 69 more rows
…
