Introduction | sits: Satellite Image Time Series Analysis on Earth Observation Data Cubes
…
# Show the description of the data cube
sinop_cube

#> # A tibble: 1 × 11
#>   source collection satellite sensor tile     xmin    xmax    ymin    ymax crs  
#>   <chr>  <chr>      <chr>     <chr>  <chr>   <dbl>   <dbl>   <dbl>   <dbl> <chr>
#> 1 BDC    MOD13Q1-6… TERRA     MODIS  0120… -6.18e6 -5.96e6 -1.35e6 -1.23e6 "PRO…
#> # ℹ 1 more variable: file_info <list>

The list of image files which make up the data cube is stored as a data frame in the column file_info. For each file, sits stores information about spectral band, reference date, size, spatial resolution, coordinate reference system, bounding box, path to file location and cloud cover information (when available).

# Show information on the images files which are part of a data cube
sinop_cube$file_info[[1]]

#> # A tibble: 46 × 13
#>    fid   band  date       nrows ncols  xres  yres      xmin      ymin      xmax
#>    <chr> <chr> <date>     <dbl> <dbl> <dbl> <dbl>     <dbl>     <dbl>     <dbl>
#>  1 1     EVI   2013-09-14   551   944  232.  232. -6181982. -1353336. -5963298.
#>  2 1     NDVI  2013-09-14   551   944  232.  232. -6181982. -1353336. -5963298.
#>  3 2     EVI   2013-09-30   551   944  232.  232. -6181982. -1353336. -5963298.
#>  4 2     NDVI  2013-09-30   551   944  232.  232. -6181982. -1353336. -5963298.
#>  5 3     EVI   2013-10-16   551   944  232.  232. -6181982. -1353336. -5963298.
#>  6 3     NDVI  2013-10-16   551   944  232.  232. -6181982. -1353336. -5963298.
#>  7 4     EVI   2013-11-01   551   944  232.  232. -6181982. -1353336. -5963298.
#>  8 4     NDVI  2013-11-01   551   944  232.  232. -6181982. -1353336. -5963298.
#>  9 5     EVI   2013-11-17   551   944  232.  232. -6181982. -1353336. -5963298.
#> 10 5     NDVI  2013-11-17   551   944  232.  232. -6181982. -1353336. -5963298.
#> # ℹ 36 more rows
#> # ℹ 3 more variables: ymax <dbl>, crs <chr>, path <chr>
…
The timeline of the sinop_cube data cube has 23 intervals with a temporal difference of 16 days. The chosen dates capture the agricultural calendar in Mato Grosso, Brazil. The agricultural year starts in September-October with the sowing of the summer crop (usually soybeans) which is harvested in February-March. Then the winter crop (mostly Corn, Cotton or Millet) is planted in March and harvested in June-July. For LULC classification, the training samples and the date cube should share a timeline with the same number of intervals and similar start and end dates.

The time series tibble

To handle time series information, sits uses a tibble. Tibbles are extensions of the data.frame tabular data structures provided by the tidyverse set of packages. The example below shows a tibble with 1,837 time series obtained from MODIS MOD13Q1 images. Each series has four attributes: two bands (NIR and MIR) and two indexes (NDVI and EVI). This dataset is available in package sitsdata.

The time series tibble contains data and metadata. The first six columns contain the metadata: spatial and temporal information, the label assigned to the sample, and the data cube from where the data has been extracted. The time_series column contains the time series data for each spatiotemporal location. This data is also organized as a tibble, with a column with the dates and the other columns with the values for each spectral band.

# Load the MODIS samples for Mato Grosso from the "sitsdata" package
library(tibble)
library(sitsdata)
data("samples_matogrosso_mod13q1", package = "sitsdata")
samples_matogrosso_mod13q1

#> # A tibble: 1,837 × 7
#>    longitude latitude start_date end_date   label   cube     time_series      
#>        <dbl>    <dbl> <date>     <date>     <chr>   <chr>    <list>           
#>  1     -57.8    -9.76 2006-09-14 2007-08-29 Pasture bdc_cube <tibble [23 × 5]>
#>  2     -59.4    -9.31 2014-09-14 2015-08-29 Pasture bdc_cube <tibble [23 × 5]>
#>  3     -59.4    -9.31 2013-09-14 2014-08-29 Pasture bdc_cube <tibble [23 × 5]>
#>  4     -57.8    -9.76 2006-09-14 2007-08-29 Pasture bdc_cube <tibble [23 × 5]>
#>  5     -55.2   -10.8  2013-09-14 2014-08-29 Pasture bdc_cube <tibble [23 × 5]>
#>  6     -51.9   -13.4  2014-09-14 2015-08-29 Pasture bdc_cube <tibble [23 × 5]>
#>  7     -56.0   -10.1  2005-09-14 2006-08-29 Pasture bdc_cube <tibble [23 × 5]>
#>  8     -54.6   -10.4  2013-09-14 2014-08-29 Pasture bdc_cube <tibble [23 × 5]>
#>  9     -52.5   -11.0  2013-09-14 2014-08-29 Pasture bdc_cube <tibble [23 × 5]>
#> 10     -52.1   -14.0  2013-09-14 2014-08-29 Pasture bdc_cube <tibble [23 × 5]>
#> # ℹ 1,827 more rows

The timeline for all time series associated with the samples follows the same agricultural calendar, starting in September 14th and ending in August 28th. All samples contain 23 values, corresponding to the same temporal interval as those of the sinop data cube. Notice that that although the years for the samples are different, the samples for a given year follow the same agricultural calendar.

The time series can be displayed by showing the time_series column.

# Load the time series for MODIS samples for Mato Grosso
samples_matogrosso_mod13q1[1, ]$time_series[[1]]

#> # A tibble: 23 × 5
#>    Index       NDVI   EVI   NIR    MIR
#>    <date>     <dbl> <dbl> <dbl>  <dbl>
#>  1 2006-09-14 0.500 0.263 0.230 0.139 
#>  2 2006-09-30 0.485 0.330 0.359 0.161 
#>  3 2006-10-16 0.716 0.397 0.264 0.0757
#>  4 2006-11-01 0.654 0.415 0.332 0.124 
#>  5 2006-11-17 0.591 0.433 0.400 0.172 
#>  6 2006-12-03 0.662 0.439 0.348 0.125 
#>  7 2006-12-19 0.734 0.444 0.295 0.0784
#>  8 2007-01-01 0.739 0.502 0.348 0.0887
#>  9 2007-01-17 0.768 0.526 0.351 0.0761
#> 10 2007-02-02 0.797 0.550 0.355 0.0634
#> # ℹ 13 more rows
…
