Technical Annex | sits: Satellite Image Time Series Analysis on Earth Observation Data Cubes
…
In R terms, sits_train() is a function factory, or a function that makes functions. Such behavior is possible because functions are first-class objects in R. In other words, they can be bound to a name in the same way that variables are. A second propriety of R is that functions capture (enclose) the environment in which they are created. In other words, when a function is returned as a result of another function, the internal variables used to create it are available inside its environment. In programming language, this technique is called “closure”.

The following definition from Wikipedia captures the purpose of clousures: “Operationally, a closure is a record storing a function together with an environment. The environment is a mapping associating each free variable of the function with the value or reference to which the name was bound when the closure was created. A closure allows the function to access those captured variables through the closure’s copies of their values or references, even when the function is invoked outside their scope.”

In sits, the properties of closures are used as a basis for making training and classification independent. The return of sits_train() is a model that contains information on how to classify input values, as well as information on the samples used to train the model.

To ensure all models work in the same fashion, machine learning functions in sits also share the same data structure for prediction. This data structure is created by sits_predictors(), which transforms the time series tibble into a set of values suitable for using as training data, as shown in the following example.

data("samples_matogrosso_mod13q1", package = "sitsdata")
pred <- sits_predictors(samples_matogrosso_mod13q1)
pred

#> # A tibble: 1,837 × 94
#>    sample_id label   NDVI1 NDVI2 NDVI3 NDVI4 NDVI5 NDVI6 NDVI7 NDVI8 NDVI9 NDVI10 NDVI11 NDVI12
#>        <int> <chr>   <dbl> <dbl> <dbl> <dbl> <dbl> <dbl> <dbl> <dbl> <dbl>  <dbl>  <dbl>  <dbl>
#>  1         1 Pasture 0.500 0.485 0.716 0.654 0.591 0.662 0.734 0.739 0.768  0.797  0.798  0.776
#>  2         2 Pasture 0.364 0.484 0.605 0.726 0.778 0.829 0.762 0.762 0.643  0.610  0.578  0.596
#>  3         3 Pasture 0.577 0.674 0.639 0.569 0.596 0.623 0.650 0.650 0.637  0.646  0.655  0.664
#>  4         4 Pasture 0.597 0.699 0.789 0.792 0.794 0.72  0.646 0.705 0.757  0.810  0.757  0.769
#>  5         5 Pasture 0.388 0.491 0.527 0.660 0.677 0.746 0.816 0.816 0.825  0.835  0.844  0.854
#>  6         6 Pasture 0.350 0.345 0.364 0.429 0.506 0.583 0.660 0.616 0.580  0.651  0.620  0.633
#>  7         7 Pasture 0.490 0.527 0.543 0.583 0.594 0.605 0.616 0.627 0.622  0.644  0.666  0.688
#>  8         8 Pasture 0.435 0.574 0.395 0.392 0.518 0.597 0.648 0.774 0.786  0.798  0.811  0.823
#>  9         9 Pasture 0.396 0.473 0.542 0.587 0.649 0.697 0.696 0.695 0.699  0.703  0.714  0.726
#> 10        10 Pasture 0.354 0.387 0.527 0.577 0.626 0.723 0.655 0.655 0.646  0.536  0.544  0.551
#> # ℹ 1,827 more rows
#> # ℹ 80 more variables: NDVI13 <dbl>, NDVI14 <dbl>, NDVI15 <dbl>, NDVI16 <dbl>, NDVI17 <dbl>,
#> #   NDVI18 <dbl>, NDVI19 <dbl>, NDVI20 <dbl>, NDVI21 <dbl>, NDVI22 <dbl>, NDVI23 <dbl>,
#> #   EVI1 <dbl>, EVI2 <dbl>, EVI3 <dbl>, EVI4 <dbl>, EVI5 <dbl>, EVI6 <dbl>, EVI7 <dbl>,
#> #   EVI8 <dbl>, EVI9 <dbl>, EVI10 <dbl>, EVI11 <dbl>, EVI12 <dbl>, EVI13 <dbl>, EVI14 <dbl>,
#> #   EVI15 <dbl>, EVI16 <dbl>, EVI17 <dbl>, EVI18 <dbl>, EVI19 <dbl>, EVI20 <dbl>, EVI21 <dbl>,
#> #   EVI22 <dbl>, EVI23 <dbl>, NIR1 <dbl>, NIR2 <dbl>, NIR3 <dbl>, NIR4 <dbl>, NIR5 <dbl>, …
…
Figure 95: Classification map for Sinop using LightGBM.

The above example shows how it is possible to extend sits with new machine learning algorithms.

How colors work in sits

In examples provided in the book, the color legend is taken from a predefined color pallete provided by sits. The color definition file used by sits has 210 class names, which can be shown using sits_colors()

#> [1] "Returning all available colors"

#> # A tibble: 220 × 2
#>    name                             color  
#>    <chr>                            <chr>  
#>  1 Evergreen_Broadleaf_Forest       #518940
#>  2 Evergreen_Broadleaf_Forests      #518940
#>  3 Tree_Cover_Broadleaved_Evergreen #518940
#>  4 Forest                           #518940
#>  5 Forests                          #518940
#>  6 Closed_Forest                    #518940
#>  7 Closed_Forests                   #518940
#>  8 Mountainside_Forest              #229C59
#>  9 Mountainside_Forests             #229C59
#> 10 Open_Forest                      #53A145
#> # ℹ 210 more rows
…
