Chapter 4 Time Series Clustering to Improve the Quality of Training Samples | sits: Data Analysis and Machine Learning on Earth Observation Data Cubes with Satellite Image Time Series
…
The sits_cluster_dendro() function has one mandatory parameter (samples), where users should provide the name of the R object containing the data samples to be evaluated. Optional parameters include bands, dist_method and linkage. The dist_method parameter specifies how to calculate the distance between two time series. We recommend a metric that uses dynamic time warping (DTW)[4], as DTW is reliable method for measuring differences between satellite image time series [5]. The options available in sits are based on those provided by package dtwclust, which include “dtw_basic,” “dtw_lb,” and “dtw2.” Please check ?dtwclust::tsclust for more information on DTW distances.

The linkage parameter defines the metric used for computing the distance between clusters. The recommended linkage criteria are: “complete” or “ward.D2.” Complete-linkage prioritizes the within-cluster dissimilarities, producing clusters with shorter distance samples. Complete-linkage clustering can be sensitive to outliers, which can increase the resulting intracluster data variance. As an alternative, Ward proposes criteria to minimize the data variance by means of either sum-of-squares or sum-of-squares-error [6]. Ward’s intuition is that clusters of multivariate observations, such as time series, should be approximately elliptical in shape [7].

After creating a dendrogram, an important question emerges: where to cut the dendrogram? The answer depends on what are the purposes of the cluster analysis, which needs to balance two objectives: get clusters as large as possible, and get clusters as homogeneous as possible with respect to their known classes. The sits_cluster_dendro() function computes the adjusted rand index (ARI) for a series of the different number of generated clusters. This function returns the height where the cut of the dendrogram maximizes the index. For more detaily, please see [8].

In the example above after calculating the dendrogram, the ARI index indicates that six (6) clusters are the best possible arrangement. However, these clusters may still contain a mixed composition of samples of different classes.

The result of the sits_cluster operation is a sits_tibble with one additional column, called “cluster.” The function sits_cluster_frequency() provides information on the composition of each cluster,

clusters

#> # A tibble: 746 × 8
#>    longitude latitude start_date end_date   label   cube    time_series  cluster
#>        <dbl>    <dbl> <date>     <date>     <chr>   <chr>   <list>         <int>
#>  1     -54.2    -14.0 2000-09-13 2001-08-29 Cerrado MOD13Q1 <tibble [23…       1
#>  2     -54.2    -14.0 2001-09-14 2002-08-29 Cerrado MOD13Q1 <tibble [23…       2
#>  3     -54.2    -14.0 2002-09-14 2003-08-29 Cerrado MOD13Q1 <tibble [23…       1
#>  4     -54.2    -14.0 2003-09-14 2004-08-28 Cerrado MOD13Q1 <tibble [23…       3
#>  5     -54.2    -14.0 2004-09-13 2005-08-29 Cerrado MOD13Q1 <tibble [23…       2
#>  6     -54.2    -14.0 2005-09-14 2006-08-29 Cerrado MOD13Q1 <tibble [23…       1
#>  7     -54.2    -14.0 2006-09-14 2007-08-29 Cerrado MOD13Q1 <tibble [23…       2
#>  8     -54.2    -14.0 2007-09-14 2008-08-28 Cerrado MOD13Q1 <tibble [23…       1
#>  9     -54.2    -14.0 2008-09-13 2009-08-29 Cerrado MOD13Q1 <tibble [23…       1
#> 10     -54.2    -14.0 2009-09-14 2010-08-29 Cerrado MOD13Q1 <tibble [23…       1
#> # … with 736 more rows
…
The output of the sits_som_map() is a list with 4 tibbles:

the original set of time series with two additional columns for each time series: id_sample (the original id of each sample) and id_neuron (the id of the neuron to which it belongs).

a tibble with information on the neurons. For each neuron, it gives the prior and posterior probabilities of all labels which occur in the samples assigned to it.

the SOM grid

som_cluster

#> $data
#> # A tibble: 50,160 × 9
#>    latitude longitude start_date end_date   label   cube    time_series id_sample
#>       <dbl>     <dbl> <date>     <date>     <chr>   <chr>   <list>          <int>
#>  1    -16.2     -54.5 2018-09-01 2019-09-01 Pasture MOD13Q1 <tibble [2…         1
#>  2    -16.2     -54.5 2018-09-01 2019-09-01 Pasture MOD13Q1 <tibble [2…         2
#>  3    -16.2     -54.5 2018-09-01 2019-09-01 Pasture MOD13Q1 <tibble [2…         3
#>  4    -16.2     -54.5 2018-09-01 2019-09-01 Pasture MOD13Q1 <tibble [2…         4
#>  5    -16.2     -54.5 2018-09-01 2019-09-01 Pasture MOD13Q1 <tibble [2…         5
#>  6    -16.2     -54.5 2018-09-01 2019-09-01 Pasture MOD13Q1 <tibble [2…         6
#>  7    -16.2     -54.4 2018-09-01 2019-09-01 Pasture MOD13Q1 <tibble [2…         7
#>  8    -16.2     -54.5 2018-09-01 2019-09-01 Pasture MOD13Q1 <tibble [2…         8
#>  9    -16.1     -54.7 2018-09-01 2019-09-01 Pasture MOD13Q1 <tibble [2…         9
#> 10    -16.2     -54.7 2018-09-01 2019-09-01 Pasture MOD13Q1 <tibble [2…        10
#> # … with 50,150 more rows, and 1 more variable: id_neuron <dbl>
#> 
#> $labelled_neurons
#> # A tibble: 734 × 5
#>    id_neuron label_samples    count prior_prob post_prob
#>        <dbl> <chr>            <int>      <dbl>     <dbl>
#>  1         1 Dunes              550    1          0     
#>  2         2 Pasture              3    1          1.00  
#>  3         3 Pasture              9    0.0263     0.0477
#>  4         3 Rocky_Savanna      333    0.974      0.940 
#>  5         4 Pasture             20    0.0608     0.133 
#>  6         4 Rocky_Savanna      309    0.939      0.847 
#>  7         5 Pasture             27    0.0736     0.125 
#>  8         5 Rocky_Savanna      333    0.907      0.816 
#>  9         5 Savanna              4    0.0109     0.0183
#> 10         5 Savanna_Parkland     3    0.00817    0.0403
#> # … with 724 more rows
…
4.3.2 SOM-based quality assessment part 2: assessing confusion between labels

The second step in SOM-based quality assessment is understanding the confusion between labels. The function sits_som_evaluate_cluster() groups neurons by their majority label and produces a tibble. For each label, the tibble show the percentage of samples with a different label that have been mapped to a neuron whose majority is that label.

To plot the SOM grid, use plot(). The neurons are labelled using the majority voting.

# produce a tibble with a summary of the mixed labels
som_eval <- sits_som_evaluate_cluster(som_cluster)

#> Joining, by = "id_neuron"

# show the result
som_eval 

#> # A tibble: 79 × 4
#>    id_cluster cluster        class          mixture_percentage
#>         <int> <chr>          <chr>                       <dbl>
#>  1          1 Dense_Woodland Dense_Woodland           84.6    
#>  2          1 Dense_Woodland Pasture                   4.80   
#>  3          1 Dense_Woodland Rocky_Savanna             4.93   
#>  4          1 Dense_Woodland Savanna                   3.27   
#>  5          1 Dense_Woodland Silviculture              2.28   
#>  6          1 Dense_Woodland Soy_Corn                  0.0387 
#>  7          1 Dense_Woodland Soy_Cotton                0.0387 
#>  8          1 Dense_Woodland Soy_Fallow                0.00968
#>  9          2 Dunes          Dunes                   100      
#> 10          3 Fallow_Cotton  Dense_Woodland            0.329  
#> # … with 69 more rows
…
